[2016-01-24 18:32:03] myapp.INFO: Matched route "n/a". {"route_parameters":{"_controller":"[object] (Closure: {})","_route":null,"url":"/restful/silex/web/index.php/api/messages/"},"request_uri":"http://localhost/restful/silex/web/index.php/api/messages"} []
[2016-01-24 18:32:03] myapp.INFO: > GET /restful/silex/web/index.php/api/messages [] []
[2016-01-24 18:32:03] myapp.INFO: < 301 /restful/silex/web/index.php/api/messages/ [] []
[2016-01-24 18:32:03] myapp.INFO: Matched route "GET_api_messages_". {"route_parameters":{"_controller":"Betfair\\Messages\\Controller\\MessagesController::index","_route":"GET_api_messages_"},"request_uri":"http://localhost/restful/silex/web/index.php/api/messages/"} []
[2016-01-24 18:32:03] myapp.INFO: > GET /restful/silex/web/index.php/api/messages/ [] []
[2016-01-24 18:32:03] myapp.INFO: < 200 [] []
[2016-01-24 18:32:06] myapp.INFO: Matched route "GET_api_messages_pair". {"route_parameters":{"_controller":"Betfair\\Messages\\Controller\\MessagesController::show","pair":"Ukraine-England","_route":"GET_api_messages_pair"},"request_uri":"http://localhost/restful/silex/web/index.php/api/messages/Ukraine-England"} []
[2016-01-24 18:32:06] myapp.INFO: > GET /restful/silex/web/index.php/api/messages/Ukraine-England [] []
[2016-01-24 18:32:06] myapp.INFO: < 200 [] []
[2016-01-24 18:32:08] myapp.INFO: Matched route "GET_api_messages_pair". {"route_parameters":{"_controller":"Betfair\\Messages\\Controller\\MessagesController::show","pair":"Spain-Portugal","_route":"GET_api_messages_pair"},"request_uri":"http://localhost/restful/silex/web/index.php/api/messages/Spain-Portugal"} []
[2016-01-24 18:32:08] myapp.INFO: > GET /restful/silex/web/index.php/api/messages/Spain-Portugal [] []
[2016-01-24 18:32:08] myapp.INFO: < 200 [] []
[2016-01-24 18:32:09] myapp.INFO: Matched route "GET_api_messages_pair". {"route_parameters":{"_controller":"Betfair\\Messages\\Controller\\MessagesController::show","pair":"Spain-Italy","_route":"GET_api_messages_pair"},"request_uri":"http://localhost/restful/silex/web/index.php/api/messages/Spain-Italy"} []
[2016-01-24 18:32:09] myapp.INFO: > GET /restful/silex/web/index.php/api/messages/Spain-Italy [] []
[2016-01-24 18:32:09] myapp.INFO: < 200 [] []
[2016-01-24 18:32:11] myapp.INFO: Matched route "GET_api_messages_pair". {"route_parameters":{"_controller":"Betfair\\Messages\\Controller\\MessagesController::show","pair":"Spain-Portugal","_route":"GET_api_messages_pair"},"request_uri":"http://localhost/restful/silex/web/index.php/api/messages/Spain-Portugal"} []
[2016-01-24 18:32:11] myapp.INFO: > GET /restful/silex/web/index.php/api/messages/Spain-Portugal [] []
[2016-01-24 18:32:11] myapp.INFO: < 200 [] []
[2016-01-24 18:39:59] myapp.INFO: Matched route "POST_api_messages_". {"route_parameters":{"_controller":"Betfair\\Messages\\Controller\\MessagesController::store","_route":"POST_api_messages_"},"request_uri":"http://localhost/restful/silex/web/index.php/api/messages/"} []
[2016-01-24 18:39:59] myapp.INFO: > POST /restful/silex/web/index.php/api/messages/ [] []
[2016-01-24 18:41:40] myapp.INFO: Matched route "POST_api_messages_". {"route_parameters":{"_controller":"Betfair\\Messages\\Controller\\MessagesController::store","_route":"POST_api_messages_"},"request_uri":"http://localhost/restful/silex/web/index.php/api/messages/"} []
[2016-01-24 18:41:40] myapp.INFO: > POST /restful/silex/web/index.php/api/messages/ [] []
[2016-01-24 18:43:44] myapp.INFO: Matched route "POST_api_messages_". {"route_parameters":{"_controller":"Betfair\\Messages\\Controller\\MessagesController::store","_route":"POST_api_messages_"},"request_uri":"http://localhost/restful/silex/web/index.php/api/messages/"} []
[2016-01-24 18:43:44] myapp.INFO: > POST /restful/silex/web/index.php/api/messages/ [] []
[2016-01-24 18:44:20] myapp.INFO: Matched route "POST_api_messages_". {"route_parameters":{"_controller":"Betfair\\Messages\\Controller\\MessagesController::store","_route":"POST_api_messages_"},"request_uri":"http://localhost/restful/silex/web/index.php/api/messages/"} []
[2016-01-24 18:44:20] myapp.INFO: > POST /restful/silex/web/index.php/api/messages/ [] []
[2016-01-24 18:44:20] myapp.INFO: < 200 [] []
[2016-01-24 18:46:48] myapp.DEBUG: Testing the Monolog logging. [] []
[2016-01-24 18:46:48] myapp.INFO: Matched route "POST_api_messages_". {"route_parameters":{"_controller":"Betfair\\Messages\\Controller\\MessagesController::store","_route":"POST_api_messages_"},"request_uri":"http://localhost/restful/silex/web/index.php/api/messages/"} []
[2016-01-24 18:46:48] myapp.INFO: > POST /restful/silex/web/index.php/api/messages/ [] []
[2016-01-24 18:58:00] myapp.DEBUG: Testing the Monolog logging. [] []
[2016-01-24 18:58:00] myapp.INFO: Matched route "n/a". {"route_parameters":{"_controller":"[object] (Closure: {})","_route":null,"url":"/restful/silex/web/index.php/api/messages/"},"request_uri":"http://localhost/restful/silex/web/index.php/api/messages"} []
[2016-01-24 18:58:00] myapp.INFO: > GET /restful/silex/web/index.php/api/messages [] []
[2016-01-24 18:58:00] myapp.INFO: < 301 /restful/silex/web/index.php/api/messages/ [] []
[2016-01-24 18:58:00] myapp.DEBUG: Testing the Monolog logging. [] []
[2016-01-24 18:58:00] myapp.INFO: Matched route "GET_api_messages_". {"route_parameters":{"_controller":"Betfair\\Messages\\Controller\\MessagesController::index","_route":"GET_api_messages_"},"request_uri":"http://localhost/restful/silex/web/index.php/api/messages/"} []
[2016-01-24 18:58:00] myapp.INFO: > GET /restful/silex/web/index.php/api/messages/ [] []
[2016-01-24 18:58:00] myapp.INFO: < 200 [] []
[2016-01-24 18:58:01] myapp.DEBUG: Testing the Monolog logging. [] []
[2016-01-24 18:58:01] myapp.INFO: Matched route "GET_api_messages_pair". {"route_parameters":{"_controller":"Betfair\\Messages\\Controller\\MessagesController::show","pair":"Ukraine-England","_route":"GET_api_messages_pair"},"request_uri":"http://localhost/restful/silex/web/index.php/api/messages/Ukraine-England"} []
[2016-01-24 18:58:01] myapp.INFO: > GET /restful/silex/web/index.php/api/messages/Ukraine-England [] []
[2016-01-24 18:58:01] myapp.INFO: < 200 [] []
[2016-01-24 18:58:04] myapp.DEBUG: Testing the Monolog logging. [] []
[2016-01-24 18:58:04] myapp.INFO: Matched route "GET_api_messages_pair". {"route_parameters":{"_controller":"Betfair\\Messages\\Controller\\MessagesController::show","pair":"Spain-Portugal","_route":"GET_api_messages_pair"},"request_uri":"http://localhost/restful/silex/web/index.php/api/messages/Spain-Portugal"} []
[2016-01-24 18:58:04] myapp.INFO: > GET /restful/silex/web/index.php/api/messages/Spain-Portugal [] []
[2016-01-24 18:58:04] myapp.INFO: < 200 [] []
[2016-01-24 18:58:07] myapp.DEBUG: Testing the Monolog logging. [] []
[2016-01-24 18:58:07] myapp.INFO: Matched route "GET_api_messages_pair". {"route_parameters":{"_controller":"Betfair\\Messages\\Controller\\MessagesController::show","pair":"Spain-Italy","_route":"GET_api_messages_pair"},"request_uri":"http://localhost/restful/silex/web/index.php/api/messages/Spain-Italy"} []
[2016-01-24 18:58:07] myapp.INFO: > GET /restful/silex/web/index.php/api/messages/Spain-Italy [] []
[2016-01-24 18:58:07] myapp.INFO: < 200 [] []
[2016-01-24 18:58:10] myapp.DEBUG: Testing the Monolog logging. [] []
[2016-01-24 18:58:10] myapp.INFO: Matched route "GET_api_messages_pair". {"route_parameters":{"_controller":"Betfair\\Messages\\Controller\\MessagesController::show","pair":"Spain-Portugal","_route":"GET_api_messages_pair"},"request_uri":"http://localhost/restful/silex/web/index.php/api/messages/Spain-Portugal"} []
[2016-01-24 18:58:10] myapp.INFO: > GET /restful/silex/web/index.php/api/messages/Spain-Portugal [] []
[2016-01-24 18:58:10] myapp.INFO: < 200 [] []
[2016-01-24 18:58:14] myapp.DEBUG: Testing the Monolog logging. [] []
[2016-01-24 18:58:14] myapp.INFO: Matched route "GET_api_messages_pair". {"route_parameters":{"_controller":"Betfair\\Messages\\Controller\\MessagesController::show","pair":"Ukraine-England","_route":"GET_api_messages_pair"},"request_uri":"http://localhost/restful/silex/web/index.php/api/messages/Ukraine-England"} []
[2016-01-24 18:58:14] myapp.INFO: > GET /restful/silex/web/index.php/api/messages/Ukraine-England [] []
[2016-01-24 18:58:14] myapp.INFO: < 200 [] []
[2016-01-24 19:19:57] myapp.INFO: Matched route "GET_". {"route_parameters":{"_controller":"[object] (Closure: {})","_route":"GET_"},"request_uri":"http://localhost/restful/silex/web/"} []
[2016-01-24 19:19:57] myapp.INFO: > GET /restful/silex/web/ [] []
[2016-01-24 19:19:57] myapp.CRITICAL: LogicException: The controller must return a response (null given). Did you forget to add a return statement somewhere in your controller? (uncaught exception) at /var/www/html/restful/silex/vendor/symfony/http-kernel/HttpKernel.php line 157 {"exception":"[object] (LogicException(code: 0): The controller must return a response (null given). Did you forget to add a return statement somewhere in your controller? at /var/www/html/restful/silex/vendor/symfony/http-kernel/HttpKernel.php:157)"} []
[2016-01-24 19:19:57] myapp.INFO: < 500 [] []
